/home/miguel/NetBeansProjects/mooc-java-programming-i/part06-Part06_11.Averages/src/main/java/GradeRegister.java
/home/miguel/NetBeansProjects/mooc-java-programming-i/part06-Part06_11.Averages/src/main/java/UserInterface.java
/home/miguel/NetBeansProjects/mooc-java-programming-i/part06-Part06_11.Averages/src/main/java/Program.java
