/home/miguel/NetBeansProjects/mooc-java-programming-i/part05-Part05_08.BiggestPetShop/src/main/java/MainProgram.java
/home/miguel/NetBeansProjects/mooc-java-programming-i/part05-Part05_08.BiggestPetShop/src/main/java/Pet.java
/home/miguel/NetBeansProjects/mooc-java-programming-i/part05-Part05_08.BiggestPetShop/src/main/java/Person.java
