/home/miguel/NetBeansProjects/mooc-java-programming-i/part06-Part06_13.Exercises/src/main/java/MainProgram.java
/home/miguel/NetBeansProjects/mooc-java-programming-i/part06-Part06_13.Exercises/src/main/java/Exercise.java
/home/miguel/NetBeansProjects/mooc-java-programming-i/part06-Part06_13.Exercises/src/main/java/ExerciseManagement.java
