/home/miguel/NetBeansProjects/mooc-java-programming-i/part06-Part06_12.JokeManager/src/main/java/JokeManager.java
/home/miguel/NetBeansProjects/mooc-java-programming-i/part06-Part06_12.JokeManager/src/main/java/Program.java
/home/miguel/NetBeansProjects/mooc-java-programming-i/part06-Part06_12.JokeManager/src/main/java/UserInterface.java
